<svg xmlns="http://www.w3.org/2000/svg">
	<symbol id="barker" viewBox="0 0 134 25">
	  <title>Barker</title>
	  <path fill-rule="evenodd" d="M.908 25V.117h8.716c3.02 0 5.31.578 6.87 1.735 1.561 1.156 2.341 2.851 2.341 5.084 0 1.22-.313 2.293-.94 3.221-.626.929-1.498 1.61-2.614 2.043 1.276.319 2.281.962 3.016 1.93.735.97 1.102 2.154 1.102 3.556 0 2.392-.763 4.204-2.29 5.434-1.526 1.23-3.702 1.857-6.528 1.88H.908zm5.127-10.835v6.716h4.392c1.208 0 2.15-.287 2.829-.863.678-.575 1.016-1.37 1.016-2.384 0-2.278-1.179-3.435-3.537-3.469h-4.7zm0-3.623H9.83c2.586-.046 3.88-1.077 3.88-3.093 0-1.128-.328-1.94-.983-2.436-.655-.495-1.69-.743-3.102-.743h-3.59v6.272zm31.957 9.331h-8.989L27.294 25h-5.451L31.105.117h4.751L45.17 25h-5.45l-1.727-5.127zm-7.604-4.153h6.22l-3.127-9.314-3.094 9.314zm27.018.171H53.32V25h-5.127V.117h9.246c2.94 0 5.207.655 6.802 1.966 1.595 1.31 2.392 3.161 2.392 5.554 0 1.697-.367 3.113-1.102 4.247-.735 1.133-1.848 2.036-3.341 2.708l5.383 10.169V25H62.07l-4.665-9.109zm-4.085-4.153h4.136c1.288 0 2.284-.327 2.99-.982.707-.655 1.06-1.558 1.06-2.71 0-1.173-.333-2.095-1-2.768-.666-.672-1.688-1.008-3.067-1.008h-4.119v7.468zm25.703 3.282l-2.666 2.87V25H71.23V.117h5.127v11.28l2.256-3.094 6.34-8.186h6.306l-8.835 11.057L91.517 25h-6.102l-6.391-9.98zm30.094-.804h-9.843v6.665h11.552V25h-16.68V.117h16.646V4.27H99.275v5.93h9.843v4.016zm15.254 1.675h4.084V25h5.127V.117h-9.245c-2.94 0-5.207.655-6.802 1.966-1.595 1.31-2.393 3.161-2.393 5.554 0 1.697.368 3.113 1.103 4.247.735 1.133 1.848 2.036 3.34 2.708l-5.383 10.169V25h5.503l4.666-9.109zm4.084-4.153h-4.135c-1.288 0-2.285-.327-2.991-.982s-1.06-1.558-1.06-2.71c0-1.173.334-2.095 1-2.768.667-.672 1.69-1.008 3.068-1.008h4.118v7.468z"/>
	</symbol>
	<symbol id="email" viewBox="0 0 550.795 550.795">
		<title>Email</title>
	  <g>
	    <path d="M501.613 491.782c12.381 0 23.109-4.088 32.229-12.16L377.793 323.567a2878.213 2878.213 0 0 0-10.801 7.767c-11.678 8.604-21.156 15.318-28.434 20.129-7.277 4.822-16.959 9.737-29.045 14.755-12.094 5.024-23.361 7.528-33.813 7.528h-.612c-10.453 0-21.72-2.503-33.813-7.528-12.093-5.018-21.775-9.933-29.045-14.755-7.277-4.811-16.75-11.524-28.434-20.129a1351.934 1351.934 0 0 0-10.771-7.809L16.946 479.622c9.119 8.072 19.854 12.16 32.234 12.16h452.433zM31.047 225.299C19.37 217.514 9.015 208.598 0 198.555V435.98l137.541-137.541c-27.516-19.21-62.969-43.562-106.494-73.14zM520.059 225.299c-41.865 28.336-77.447 52.73-106.75 73.195l137.486 137.492V198.555c-8.815 9.841-19.059 18.751-30.736 26.744z"/>
	    <path d="M501.613 59.013H49.181c-15.784 0-27.919 5.33-36.42 15.979C4.253 85.646.006 98.97.006 114.949c0 12.907 5.636 26.892 16.903 41.959 11.267 15.061 23.256 26.891 35.961 35.496 6.965 4.921 27.969 19.523 63.012 43.801a20367.497 20367.497 0 0 1 49.505 34.395 8855.122 8855.122 0 0 1 31.022 21.701c.985.691 2.534 1.799 4.59 3.269 2.215 1.591 5.018 3.61 8.476 6.107 6.659 4.816 12.191 8.709 16.597 11.683 4.4 2.975 9.731 6.298 15.985 9.988 6.249 3.685 12.143 6.456 17.675 8.299 5.533 1.842 10.655 2.766 15.367 2.766h.612c4.711 0 9.834-.924 15.368-2.766 5.531-1.843 11.42-4.608 17.674-8.299 6.248-3.69 11.572-7.02 15.986-9.988 4.406-2.974 9.938-6.866 16.598-11.683 3.451-2.497 6.254-4.517 8.469-6.102a643.575 643.575 0 0 1 4.596-3.274c6.684-4.651 17.1-11.892 31.104-21.616 25.482-17.705 63.01-43.764 112.742-78.281 14.957-10.447 27.453-23.054 37.496-37.803 10.025-14.749 15.051-30.22 15.051-46.408 0-13.525-4.873-25.098-14.598-34.737-9.736-9.627-21.265-14.443-34.584-14.443z"/>
	  </g>
	</symbol>
	<symbol id="facebook" viewBox="0 0 96.124 96.123">
		<title>Facebook</title>
	  <path d="M72.089.02L59.624 0C45.62 0 36.57 9.285 36.57 23.656v10.907H24.037a1.96 1.96 0 0 0-1.96 1.961v15.803a1.96 1.96 0 0 0 1.96 1.96H36.57v39.876a1.96 1.96 0 0 0 1.96 1.96h16.352a1.96 1.96 0 0 0 1.96-1.96V54.287h14.654a1.96 1.96 0 0 0 1.96-1.96l.006-15.803a1.963 1.963 0 0 0-1.961-1.961H56.842v-9.246c0-4.444 1.059-6.7 6.848-6.7l8.397-.003a1.96 1.96 0 0 0 1.959-1.96V1.98A1.96 1.96 0 0 0 72.089.02z"/>
	</symbol>
	<symbol id="twitter" viewBox="0 0 612 612">
		<title>Twitter</title>
		<path d="M612 116.258a250.714 250.714 0 0 1-72.088 19.772c25.929-15.527 45.777-40.155 55.184-69.411-24.322 14.379-51.169 24.82-79.775 30.48-22.907-24.437-55.49-39.658-91.63-39.658-69.334 0-125.551 56.217-125.551 125.513 0 9.828 1.109 19.427 3.251 28.606-104.326-5.24-196.835-55.223-258.75-131.174-10.823 18.51-16.98 40.078-16.98 63.101 0 43.559 22.181 81.993 55.835 104.479a125.556 125.556 0 0 1-56.867-15.756v1.568c0 60.806 43.291 111.554 100.693 123.104-10.517 2.83-21.607 4.398-33.08 4.398-8.107 0-15.947-.803-23.634-2.333 15.985 49.907 62.336 86.199 117.253 87.194-42.947 33.654-97.099 53.655-155.916 53.655-10.134 0-20.116-.612-29.944-1.721 55.567 35.681 121.536 56.485 192.438 56.485 230.948 0 357.188-191.291 357.188-357.188l-.421-16.253c24.666-17.593 46.005-39.697 62.794-64.861z"/>
	</symbol>
	<symbol id="instagram" viewBox="0 0 512 512">
		<title>Instagram</title>
	  <path d="M352 0H160C71.648 0 0 71.648 0 160v192c0 88.352 71.648 160 160 160h192c88.352 0 160-71.648 160-160V160C512 71.648 440.352 0 352 0zm112 352c0 61.76-50.24 112-112 112H160c-61.76 0-112-50.24-112-112V160C48 98.24 98.24 48 160 48h192c61.76 0 112 50.24 112 112v192z"/>
	  <path d="M256 128c-70.688 0-128 57.312-128 128s57.312 128 128 128 128-57.312 128-128-57.312-128-128-128zm0 208c-44.096 0-80-35.904-80-80 0-44.128 35.904-80 80-80s80 35.872 80 80c0 44.096-35.904 80-80 80z"/>
	  <circle cx="393.6" cy="118.4" r="17.056"/>
	</symbol>
	<symbol id="phone" viewBox="0 0 396.454 396.454">
		<title>Teléfono</title>
	  <path d="M332.821 367.991c-11.233 12.985-92.111 94.404-213.951-95.18C-9.557 72.934 67.444 18.2 100.847 4.695l.005-.043c.53-.214 1.059-.378 1.597-.583a89.679 89.679 0 0 1 2.67-.971c.367-.118.752-.263 1.123-.381 4.699-1.545 7.692-2.049 7.692-2.049s-.021.088-.037.23c22.136-3.875 42.897 4.896 46.869 24.295l6.982 44.047c4.748 23.136-13.581 50.933-40.933 62.112l-2.213.897c14.472 50.233 43.696 108.053 100.981 160.677l4.213-3.666c22.285-19.409 55.352-23.245 73.878-8.611l32.559 28.295c18.067 14.287 17.38 39.744-3.412 59.047z"/>
	</symbol>
	<symbol id="whatsapp" viewBox="0 0 512 512">
		<title>Whatsapp</title>
	  <path d="M256.064 0h-.128C114.784 0 0 114.816 0 256c0 56 18.048 107.904 48.736 150.048l-31.904 95.104 98.4-31.456C155.712 496.512 204 512 256.064 512 397.216 512 512 397.152 512 256S397.216 0 256.064 0zm148.96 361.504c-6.176 17.44-30.688 31.904-50.24 36.128-13.376 2.848-30.848 5.12-89.664-19.264-75.232-31.168-123.68-107.616-127.456-112.576-3.616-4.96-30.4-40.48-30.4-77.216s18.656-54.624 26.176-62.304c6.176-6.304 16.384-9.184 26.176-9.184 3.168 0 6.016.16 8.576.288 7.52.32 11.296.768 16.256 12.64 6.176 14.88 21.216 51.616 23.008 55.392 1.824 3.776 3.648 8.896 1.088 13.856-2.4 5.12-4.512 7.392-8.288 11.744-3.776 4.352-7.36 7.68-11.136 12.352-3.456 4.064-7.36 8.416-3.008 15.936 4.352 7.36 19.392 31.904 41.536 51.616 28.576 25.44 51.744 33.568 60.032 37.024 6.176 2.56 13.536 1.952 18.048-2.848 5.728-6.176 12.8-16.416 20-26.496 5.12-7.232 11.584-8.128 18.368-5.568 6.912 2.4 43.488 20.48 51.008 24.224 7.52 3.776 12.48 5.568 14.304 8.736 1.792 3.168 1.792 18.048-4.384 35.52z"/>
	</symbol>
	<symbol id="arrow-down" viewBox="0 0 284.929 284.929">
		<title>Ir Abajo</title>
	  <path d="M282.082 76.511l-14.274-14.273c-1.902-1.906-4.093-2.856-6.57-2.856-2.471 0-4.661.95-6.563 2.856L142.466 174.441 30.262 62.241c-1.903-1.906-4.093-2.856-6.567-2.856-2.475 0-4.665.95-6.567 2.856L2.856 76.515C.95 78.417 0 80.607 0 83.082c0 2.473.953 4.663 2.856 6.565l133.043 133.046c1.902 1.903 4.093 2.854 6.567 2.854s4.661-.951 6.562-2.854L282.082 89.647c1.902-1.903 2.847-4.093 2.847-6.565 0-2.475-.945-4.665-2.847-6.571z"/>
	</symbol>
	<symbol id="pedido" viewBox="0 0 17 19">
  	<title>Pedido</title>
	  <path fill-rule="nonzero" d="M16.476 14.065c.577 2.05-.574 4.19-2.57 4.782-1.997.592-4.083-.59-4.66-2.64l-1.872 1.137c-.008.005-.017.007-.025.011a.25.25 0 0 1-.027.012.273.273 0 0 1-.242-.012.254.254 0 0 1-.025-.01L.154 13.157A.324.324 0 0 1 0 12.88V4.508c0-.01.003-.018.004-.028.001-.01.004-.018.004-.028a.328.328 0 0 1 .036-.105v-.003c0-.002.005-.003.005-.005a.315.315 0 0 1 .069-.079l.018-.015c.007-.004.011-.01.018-.014l6.9-4.186c.1-.06.221-.06.32 0l6.9 4.186a.324.324 0 0 1 .155.277v7.117a3.835 3.835 0 0 1 2.047 2.44zM7.214.695L.93 4.509l1.632.99 2.925-1.775a.31.31 0 0 1 .43.114.327.327 0 0 1-.111.441L3.178 5.872l1.631.99 6.284-3.811-1.63-.99-2.717 1.646a.31.31 0 0 1-.43-.113.327.327 0 0 1 .111-.441l2.418-1.468-1.63-.99zM4.496 7.42l-1.62-.984v2.15l1.62.984V7.42zm-2.928 3.207c.174 0 .314.144.314.322v1.288c0 .177-.14.322-.314.322a.318.318 0 0 1-.313-.322v-1.288c0-.178.14-.322.313-.322zm1.255.644c.173 0 .314.144.314.322v1.288c0 .177-.14.322-.314.322a.318.318 0 0 1-.314-.322v-1.288c0-.178.14-.322.314-.322zm6.397 2.868c.528-2.055 2.58-3.282 4.581-2.74V4.692l-2.09-1.269-6.285 3.813L7.214 8.32l5.68-3.446a.31.31 0 0 1 .43.113.327.327 0 0 1-.111.442L7.528 8.878v5.29c0 .179-.14.323-.314.323a.318.318 0 0 1-.313-.322v-5.29l-1.778-1.08v2.335c0 .178-.14.322-.314.322a.31.31 0 0 1-.16-.045L2.403 9.048a.324.324 0 0 1-.154-.278V6.056l-1.62-.983v7.624L6.9 16.503v-1.046c0-.178.14-.322.313-.322s.314.144.314.322v1.046l1.589-.965a3.985 3.985 0 0 1 .103-1.399zm3.64 4.216c1.732-.002 3.135-1.443 3.137-3.22 0-1.779-1.404-3.22-3.137-3.22-1.732 0-3.136 1.441-3.136 3.22 0 1.778 1.404 3.22 3.136 3.22z"/>
	</symbol>
	<symbol id="user" viewBox="0 0 19 21">
	  <title>Usuario</title>
	  <g fill="none" fill-rule="evenodd">
	    <path d="M-8-8h36v36H-8z"/>
	    <path fill="#FFF" d="M15.587 18.598a27.404 27.404 0 0 1-12.178 0c-1.642-.376-2.402-1.203-2.259-2.458.307-2.677 2.576-5.42 5.316-6.47a5.115 5.115 0 0 0 3.032 1.017 5.108 5.108 0 0 0 3.031-1.017c2.74 1.05 5.01 3.794 5.316 6.47.143 1.255-.616 2.082-2.258 2.458M9.497 1.133c2.366 0 4.364 1.998 4.364 4.365 0 2.365-1.998 4.363-4.363 4.363S5.134 7.863 5.134 5.498c0-2.367 1.999-4.365 4.364-4.365m9.166 14.914c-.328-2.88-2.573-5.722-5.438-6.987.898-.937 1.46-2.197 1.46-3.562 0-2.814-2.375-5.19-5.188-5.19-2.813 0-5.189 2.376-5.189 5.19 0 1.365.564 2.625 1.461 3.562C2.905 10.325.66 13.168.33 16.047c-.193 1.692.834 2.884 2.895 3.356 2.057.47 4.167.709 6.273.709 2.105 0 4.215-.239 6.273-.71 2.06-.471 3.088-1.663 2.893-3.355"/>
	  </g>
	</symbol>
	<symbol id="location" viewBox="0 0 489.817 489.817">
		<title>Ubicación</title>
	  <path d="M234.072 485.917c6.3 5.2 15.4 5.2 21.7 0 101.6-84.4 146.9-162 166.6-208.6 5.7-12.3 10.1-25.3 13.2-38.8.9-4 1.3-6.1 1.3-6.1 2.3-12 3.5-24.4 3.5-37.1-.1-110.1-91.4-199-202.5-195.2-97.3 3.4-178.1 79.3-187.5 176.2-1.9 19.4-.8 38.2 2.6 56.1 0 0 .3 2.1 1.3 6.1 3 13.5 7.5 26.5 13.2 38.8 19.7 46.5 64.9 124.2 166.6 208.6zm-108.1-288.2c0-65.6 53.2-118.9 118.9-118.9s118.9 53.2 118.9 118.9-53.3 118.8-118.9 118.8-118.9-53.2-118.9-118.8z"/>
	</symbol>
	<symbol id="local" viewBox="0 0 13 14">
	  <title>Local</title>
	  <path fill-rule="evenodd" d="M10.44 4.07V.751H8.171v1.053L6.368 0 0 6.368l.425.426.696-.696v5.152c0 1.21.985 2.195 2.195 2.195h1.589V8.619c0-.9.658-1.631 1.463-1.631.806 0 1.463.731 1.463 1.631v4.826h1.591c1.21 0 2.194-.985 2.194-2.195V6.098l.695.696.426-.426-2.298-2.298z"/>
	</symbol>
	<symbol id="share" viewBox="0 0 16 13">
	  <title>Compartir</title>
	  <g fill="none" fill-rule="evenodd" stroke="#D6C9BB" stroke-linecap="round" stroke-linejoin="round">
	    <path d="M11 9.2v.694C11 11.057 10.143 12 9.085 12h-6.17C1.858 12 1 11.057 1 9.894V3.106C1 1.943 1.858 1 2.915 1h5.178"/>
	    <path d="M14.949 4.063l-3.99-3.032c-.093-.071-.237-.011-.237.1v1.843c-4.45 0-6.418 3.267-6.72 4.84-.03.16.193.252.312.13C6.79 5.414 9.37 5.49 10.722 5.49v1.704c0 .11.144.17.238.1l3.989-3.032a.122.122 0 0 0 0-.2z"/>
	  </g>
	</symbol>
	<symbol id="search" viewBox="0 0 17 17">
	  <title>Buscar</title>
	  <path fill-rule="evenodd" d="M12.152 10.691h-.772l-.268-.266a6.287 6.287 0 0 0 1.524-4.107 6.318 6.318 0 1 0-6.318 6.317 6.29 6.29 0 0 0 4.107-1.522l.268.266v.77L15.55 17 17 15.55l-4.848-4.859zM6.5 11a4.5 4.5 0 1 1 0-9 4.5 4.5 0 0 1 0 9z"/>
	</symbol>
	<symbol id="back" viewBox="0 0 23 15">
		<title>Volver</title>
		<g fill="none" fill-rule="evenodd">
			<path d="M-1-6h26v26H-1z"/>
			<path stroke="#E4AE17" stroke-linecap="round" stroke-linejoin="round" stroke-width="2.08" d="M8.325 1L2 7.325l6.325 6.325M2 7h19.941"/>
		</g>
	</symbol>
	<symbol id="pin" viewBox="0 0 489.817 489.817">
		<title>Ubicación</title>
		<path d="M234.072 485.917c6.3 5.2 15.4 5.2 21.7 0 101.6-84.4 146.9-162 166.6-208.6 5.7-12.3 10.1-25.3 13.2-38.8.9-4 1.3-6.1 1.3-6.1 2.3-12 3.5-24.4 3.5-37.1-.1-110.1-91.4-199-202.5-195.2-97.3 3.4-178.1 79.3-187.5 176.2-1.9 19.4-.8 38.2 2.6 56.1 0 0 .3 2.1 1.3 6.1 3 13.5 7.5 26.5 13.2 38.8 19.7 46.5 64.9 124.2 166.6 208.6zm-108.1-288.2c0-65.6 53.2-118.9 118.9-118.9s118.9 53.2 118.9 118.9-53.3 118.8-118.9 118.8-118.9-53.2-118.9-118.8z"/>
	</symbol>
	<symbol id="step-dog" viewBox="0 0 27 25">
		<title>Step Dog</title>
		<g fill="none" fill-rule="evenodd">
			<path stroke="#FFF" d="M24.983 6.768c-.781-1.42-1.88-2.77-2.62-3.477-1.631-1.558-2.995-1.518-3.663-1.355a2.437 2.437 0 0 0-.735.313c-1.152-.912-2.55-1.36-4.24-1.36-1.688 0-3.086.448-4.238 1.36a2.438 2.438 0 0 0-.736-.313c-.668-.163-2.031-.203-3.662 1.355-.741.708-1.84 2.058-2.62 3.477-1.066 1.934-1.301 3.503-.7 4.664.71 1.369 1.805 1.75 2.678 1.855a13.01 13.01 0 0 0-.337 3.043c0 1.62.343 3.014 1.018 4.144.594.994 1.447 1.789 2.538 2.364 1.701.896 3.693 1.121 5.26 1.169v-5.414c-.97-.496-1.916-1.738-1.916-2.727 0-1.666 1.7-1.666 2.716-1.666 1.015 0 2.715 0 2.715 1.666 0 .99-.944 2.23-1.914 2.727v5.414c1.566-.048 3.558-.273 5.259-1.17 1.09-.574 1.944-1.37 2.538-2.363.675-1.13 1.017-2.524 1.017-4.144 0-1.19-.128-2.149-.337-3.044.874-.103 1.968-.485 2.678-1.854.602-1.16.367-2.73-.699-4.664zm-14.147 2.79a.723.723 0 1 1 .001-1.445.723.723 0 0 1-.001 1.446zm5.78 0a.723.723 0 1 1 0-1.445.723.723 0 0 1 0 1.446z"/>
			<path d="M0-2h27.452v27.452H0z"/>
		</g>
	</symbol>
	<symbol id="step-data" viewBox="0 0 18 25">
		<title>Step Datos</title>
		<g fill="none" fill-rule="evenodd" stroke="#FFF" stroke-linecap="round" stroke-linejoin="round">
			<path d="M16.929 22.73c0 .692-.554 1.252-1.239 1.252H1.882c-.684 0-1.238-.56-1.238-1.252V2.13c0-.692.554-1.252 1.238-1.252H15.69c.685 0 1.239.56 1.239 1.252v20.6zM3.18 4.291h11.213M3.18 7.774h11.213M3.18 11.257h11.213M3.18 14.74h8.71M3.18 18.224h8.71"/>
		</g>
	</symbol>
	<symbol id="step-suscription" viewBox="0 0 22 23">
		<title>Step Suscripción</title>
		<g fill="none" fill-rule="evenodd" stroke="#FFF" stroke-linecap="round" stroke-linejoin="round">
			<path stroke-width=".943" d="M9.968 18.133l6.923-6.923c1.319-1.319 1.055-3.72-.589-5.363-1.642-1.643-4.044-1.907-5.362-.588L4.017 12.18"/>
			<path stroke-width=".77" d="M10.06 18.04a1.728 1.728 0 0 0-1.984-1.983 1.728 1.728 0 0 0-1.984-1.984 1.727 1.727 0 0 0-1.983-1.984"/>
			<path stroke-width=".943" d="M10.763 5.436l3.256-3.257c1.32-1.32 3.72-1.055 5.364.588 1.644 1.643 1.906 4.044.588 5.363l-3.257 3.257M9.968 18.133l-7.626 3.33a1.252 1.252 0 0 1-1.649-1.647l3.324-7.635"/>
		</g>
	</symbol>
	<symbol id="step-delivery" viewBox="0 0 27 23">
		<title>Step Pedidos</title>
		<g fill="none" fill-rule="evenodd" stroke="#FFF" stroke-linecap="round" stroke-linejoin="round">
			<path stroke-width=".919" d="M11.611 16.855H20.7c.469 0 .897-.263 1.109-.682l4.022-9.951a.841.841 0 0 0-.78-1.158H7.26a.841.841 0 0 0-.78 1.158l4.021 9.951c.213.419.642.683 1.11.683zM8.391 10.96L4.957 2.482c-.223-.554-.73-1.158-1.4-1.158H.325"/>
			<path stroke-width=".674" d="M23.915 10.96H8.491M19.363 16.855s-.051-11.79 0-11.79M12.947 16.855V5.066"/>
			<path stroke-width=".919" d="M11.016 20.72a1.58 1.58 0 1 0 3.162-.002 1.58 1.58 0 0 0-3.162.002zM18.175 20.72a1.58 1.58 0 1 0 3.16 0 1.58 1.58 0 0 0-3.16 0z"/>
		</g>
	</symbol>
	<symbol id="check" viewBox="0 0 15 11">
		<title>Check</title>
		<path fill-rule="evenodd" d="M5.099 11h-.013a1.178 1.178 0 0 1-.841-.36L.3 6.497A1.063 1.063 0 0 1 .38 4.944a1.194 1.194 0 0 1 1.629.075l3.11 3.263 7.89-7.939A1.195 1.195 0 0 1 14.64.301c.462.418.482 1.115.044 1.556l-8.748 8.8A1.18 1.18 0 0 1 5.1 11"/>
	</symbol>
	<symbol id="calendar" viewBox="0 0 60 60">
		<path d="M57 4h-7V1a1 1 0 0 0-1-1h-7a1 1 0 0 0-1 1v3H19V1a1 1 0 0 0-1-1h-7a1 1 0 0 0-1 1v3H3a1 1 0 0 0-1 1v54a1 1 0 0 0 1 1h54a1 1 0 0 0 1-1V5a1 1 0 0 0-1-1zM43 2h5v6h-5V2zM12 2h5v6h-5V2zM4 6h6v3a1 1 0 0 0 1 1h7a1 1 0 0 0 1-1V6h22v3a1 1 0 0 0 1 1h7a1 1 0 0 0 1-1V6h6v9H4V6zm0 52V17h52v41H4z"/>
		<path d="M38 23H11v29h38V23H38zm-7 2h7v7h-7v-7zm7 16h-7v-7h7v7zm-16-7h7v7h-7v-7zm0-9h7v7h-7v-7zm-9 0h7v7h-7v-7zm0 9h7v7h-7v-7zm7 16h-7v-7h7v7zm9 0h-7v-7h7v7zm9 0h-7v-7h7v7zm9 0h-7v-7h7v7zm0-9h-7v-7h7v7zm0-16v7h-7v-7h7z"/>
	</symbol>
	<symbol id="clock" viewBox="0 0 668.91 668.91">
		<path d="M586.385 143.356l20.53 26.147 9.942-12.719 9.91-12.718c21.982-28.116 16.915-68.757-11.04-90.61l-50.971-39.833c-28.083-21.918-68.725-16.818-90.578 11.201l-19.853 25.404 30.344 13.59 14.946-19.142c10.942-14.009 31.312-16.527 45.289-5.617l50.97 39.834c13.945 10.911 16.463 31.279 5.488 45.289l-14.977 19.174zM334.438 152.427v193.424h-129.12v32.409h129.12v.129h32.151v-.129h.129v-32.409h-.129V152.427zM194.762 24.856c-21.95-28.116-62.623-33.055-90.578-11.201L53.181 53.488c-28.083 21.918-32.926 62.591-11.04 90.61l19.852 25.405 20.53-26.147-14.946-19.142c-10.943-14.01-8.49-34.378 5.488-45.289l50.97-39.834c13.945-10.911 34.314-8.393 45.289 5.617L184.27 63.85l30.343-13.59-9.942-12.686-9.909-12.718z"/>
		<path d="M43.917 346.108c0 97.519 48.033 183.804 121.761 236.518l-64.076 63.785 22.596 22.499 69.112-68.821c41.771 23.274 89.9 36.541 141.129 36.541 50.195 0 97.389-12.718 138.578-35.12l67.691 67.4 22.597-22.499-62.43-62.172c75.019-52.52 124.085-139.611 124.085-238.131 0-160.465-130.058-290.522-290.521-290.522-160.433 0-290.522 130.09-290.522 290.522zm548.763 0c0 142.614-115.628 258.242-258.241 258.242-142.614 0-258.242-115.628-258.242-258.242 0-142.614 115.628-258.242 258.242-258.242 142.613.001 258.241 115.629 258.241 258.242z"/>
	</symbol>
	<symbol id="trash" viewBox="0 0 774.266 774.266">
		<g>
			<path d="M640.35 91.169H536.971V23.991C536.971 10.469 526.064 0 512.543 0c-1.312 0-2.187.438-2.614.875-.438-.437-1.313-.875-1.75-.875H261.722c-13.521 0-23.99 10.469-23.99 23.991V91.17H133.916c-29.667 0-52.783 23.116-52.783 52.783v86.368h45.803v491.6c0 29.668 22.679 52.346 52.346 52.346h415.703c29.667 0 52.782-22.678 52.782-52.346v-491.6h45.366v-86.368c0-29.667-23.125-52.784-52.783-52.784zM285.713 47.981h202.84v43.188h-202.84V47.981zm313.636 673.941c0 3.061-1.312 4.363-4.364 4.363H179.282c-3.052 0-4.364-1.303-4.364-4.363V230.32h424.431v491.602zm45.366-539.583H129.551v-38.387c0-3.053 1.312-4.802 4.364-4.802H640.35c3.053 0 4.365 1.749 4.365 4.802v38.387z"/>
			<path d="M475.031 286.593h48.418v396.942h-48.418zM363.361 286.593h48.418v396.942h-48.418zM251.69 286.593h48.418v396.942H251.69z"/>
		</g>
	</symbol>
	<symbol id="enable" viewBox="0 0 400 399.999">
		<path d="M361.796 209.654c-7.887 0-14.279 6.393-14.279 14.275 0 81.342-66.172 147.518-147.519 147.518-81.342 0-147.515-66.176-147.515-147.518 0-76.521 58.575-139.585 133.239-146.796v32.863c0 5.099 2.725 9.812 7.137 12.362a14.26 14.26 0 0 0 14.275 0l82.904-47.857a14.262 14.262 0 0 0 7.137-12.361c0-5.1-2.717-9.815-7.137-12.363L207.134 1.913a14.27 14.27 0 0 0-14.275 0 14.284 14.284 0 0 0-7.137 12.363v34.212c-90.426 7.298-161.791 83.167-161.791 175.44 0 97.085 78.984 176.07 176.066 176.07 97.088 0 176.071-78.985 176.071-176.07 0-7.881-6.389-14.274-14.272-14.274z"/>
	</symbol>
	<symbol id="info" viewBox="0 0 65 65">
		<g>
			<path d="M32.5 0C14.58 0 0 14.579 0 32.5S14.58 65 32.5 65 65 50.421 65 32.5 50.42 0 32.5 0zm0 61C16.785 61 4 48.215 4 32.5S16.785 4 32.5 4 61 16.785 61 32.5 48.215 61 32.5 61z"/>
			<circle cx="33.018" cy="19.541" r="3.345"/>
			<path d="M32.137 28.342a2 2 0 0 0-2 2v17a2 2 0 0 0 4 0v-17a2 2 0 0 0-2-2z"/>
		</g>
	</symbol>
	<symbol id="show" viewBox="0 0 512 512">
		<title>Mostrar</title>
		<path d="M256 0C114.833 0 0 114.844 0 256s114.833 256 256 256 256-114.844 256-256S397.167 0 256 0zm-21.333 373.333c0 17.646-14.354 32-32 32h-64c-17.646 0-32-14.354-32-32v-64c0-17.646 14.354-32 32-32h64c17.646 0 32 14.354 32 32v64zm0-170.666c0 17.646-14.354 32-32 32h-64c-17.646 0-32-14.354-32-32v-64c0-17.646 14.354-32 32-32h64c17.646 0 32 14.354 32 32v64zm170.666 170.666c0 17.646-14.354 32-32 32h-64c-17.646 0-32-14.354-32-32v-64c0-17.646 14.354-32 32-32h64c17.646 0 32 14.354 32 32v64zm0-170.666c0 17.646-14.354 32-32 32h-64c-17.646 0-32-14.354-32-32v-64c0-17.646 14.354-32 32-32h64c17.646 0 32 14.354 32 32v64z"/>
	</symbol>
	<symbol id="edit" viewBox="0 0 25 25">
		<title>Editar</title>
		<path fill-rule="nonzero" d="M23.81 1.19a4.079 4.079 0 0 0-5.76 0L1.731 17.508c-.008.008-.013.017-.02.025l-.026.035a.44.44 0 0 0-.056.108c-.004.011-.01.022-.013.034l-.006.013-1.6 6.72a.449.449 0 0 0-.01.09L0 24.552a.45.45 0 0 0 .043.182c.022.049.05.096.089.134a.455.455 0 0 0 .424.12l6.72-1.599c.012-.002.023-.01.034-.013a.418.418 0 0 0 .136-.074l.033-.024c.003-.004.008-.005.012-.01L23.809 6.95a4.077 4.077 0 0 0 0-5.76zm-.64.64a3.17 3.17 0 0 1 .294 4.135l-4.429-4.429a3.17 3.17 0 0 1 4.134.294zm-2.24 6.72l-4.48-4.48.64-.64 4.48 4.48-.64.64zM2.245 22.754a.452.452 0 0 0-.64 0l-.343.343 1.156-4.854 2.001-.223-.257 2.318c-.002.017.004.033.004.05s-.006.032-.004.05c.001.015.01.027.012.041a.46.46 0 0 0 .111.214.453.453 0 0 0 .227.129c.017.004.031.013.05.016a.444.444 0 0 0 .048.002h.002a.45.45 0 0 0 .05-.002l2.317-.258-.222 2.001-4.855 1.156.343-.343a.453.453 0 0 0 0-.64zm5.679-2.479L18.049 10.15a.452.452 0 1 0-.64-.64L7.285 19.635l-2.16.24.24-2.16L15.49 7.59a.452.452 0 1 0-.64-.64L4.724 17.076l-1.44.16L15.81 4.71l4.48 4.48L7.763 21.714l.16-1.44zM22.209 7.27l-4.48-4.48.64-.64 4.48 4.48-.64.64z"/>
	</symbol>
</svg>