<svg xmlns="http://www.w3.org/2000/svg" width="100%" height="100%" viewBox="0 0 12 21">
  <title>Anterior</title>
  <path fill="none" fill-rule="evenodd" stroke="#FFF" stroke-linecap="round" stroke-linejoin="round" stroke-width="2.4" d="M10.5 19L2 10.5 10.5 2"/>
</svg>
