<svg xmlns="http://www.w3.org/2000/svg" width="100%" height="100%" viewBox="0 0 134 25">
  <title>Barker</title>
  <path fill-rule="evenodd" d="M.908 25V.117h8.716c3.02 0 5.31.578 6.87 1.735 1.561 1.156 2.341 2.851 2.341 5.084 0 1.22-.313 2.293-.94 3.221-.626.929-1.498 1.61-2.614 2.043 1.276.319 2.281.962 3.016 1.93.735.97 1.102 2.154 1.102 3.556 0 2.392-.763 4.204-2.29 5.434-1.526 1.23-3.702 1.857-6.528 1.88H.908zm5.127-10.835v6.716h4.392c1.208 0 2.15-.287 2.829-.863.678-.575 1.016-1.37 1.016-2.384 0-2.278-1.179-3.435-3.537-3.469h-4.7zm0-3.623H9.83c2.586-.046 3.88-1.077 3.88-3.093 0-1.128-.328-1.94-.983-2.436-.655-.495-1.69-.743-3.102-.743h-3.59v6.272zm31.957 9.331h-8.989L27.294 25h-5.451L31.105.117h4.751L45.17 25h-5.45l-1.727-5.127zm-7.604-4.153h6.22l-3.127-9.314-3.094 9.314zm27.018.171H53.32V25h-5.127V.117h9.246c2.94 0 5.207.655 6.802 1.966 1.595 1.31 2.392 3.161 2.392 5.554 0 1.697-.367 3.113-1.102 4.247-.735 1.133-1.848 2.036-3.341 2.708l5.383 10.169V25H62.07l-4.665-9.109zm-4.085-4.153h4.136c1.288 0 2.284-.327 2.99-.982.707-.655 1.06-1.558 1.06-2.71 0-1.173-.333-2.095-1-2.768-.666-.672-1.688-1.008-3.067-1.008h-4.119v7.468zm25.703 3.282l-2.666 2.87V25H71.23V.117h5.127v11.28l2.256-3.094 6.34-8.186h6.306l-8.835 11.057L91.517 25h-6.102l-6.391-9.98zm30.094-.804h-9.843v6.665h11.552V25h-16.68V.117h16.646V4.27H99.275v5.93h9.843v4.016zm15.254 1.675h4.084V25h5.127V.117h-9.245c-2.94 0-5.207.655-6.802 1.966-1.595 1.31-2.393 3.161-2.393 5.554 0 1.697.368 3.113 1.103 4.247.735 1.133 1.848 2.036 3.34 2.708l-5.383 10.169V25h5.503l4.666-9.109zm4.084-4.153h-4.135c-1.288 0-2.285-.327-2.991-.982s-1.06-1.558-1.06-2.71c0-1.173.334-2.095 1-2.768.667-.672 1.69-1.008 3.068-1.008h4.118v7.468z"/>
</svg>
