<svg xmlns="http://www.w3.org/2000/svg" width="100%" height="100%" viewBox="0 0 396.454 396.454">
	<title>Teléfono</title>
  <path d="M332.821 367.991c-11.233 12.985-92.111 94.404-213.951-95.18C-9.557 72.934 67.444 18.2 100.847 4.695l.005-.043c.53-.214 1.059-.378 1.597-.583a89.679 89.679 0 0 1 2.67-.971c.367-.118.752-.263 1.123-.381 4.699-1.545 7.692-2.049 7.692-2.049s-.021.088-.037.23c22.136-3.875 42.897 4.896 46.869 24.295l6.982 44.047c4.748 23.136-13.581 50.933-40.933 62.112l-2.213.897c14.472 50.233 43.696 108.053 100.981 160.677l4.213-3.666c22.285-19.409 55.352-23.245 73.878-8.611l32.559 28.295c18.067 14.287 17.38 39.744-3.412 59.047z"/>
</svg>
