<svg xmlns="http://www.w3.org/2000/svg" width="100%" height="100%" viewBox="0 0 18 25">
  <title>Step Datos</title>
  <g fill="none" fill-rule="evenodd" stroke="#FFF" stroke-linecap="round" stroke-linejoin="round">
    <path d="M16.929 22.73c0 .692-.554 1.252-1.239 1.252H1.882c-.684 0-1.238-.56-1.238-1.252V2.13c0-.692.554-1.252 1.238-1.252H15.69c.685 0 1.239.56 1.239 1.252v20.6zM3.18 4.291h11.213M3.18 7.774h11.213M3.18 11.257h11.213M3.18 14.74h8.71M3.18 18.224h8.71"/>
  </g>
</svg>
